{
    "legacy_addon_id": "",
    "title": "[AnzahTools] Mark Forum as Read with Double Click",
    "description": "",
    "version_id": 1020070,
    "version_string": "1.2.0",
    "dev": "AnzahTools",
    "dev_url": "https://anzah.tools",
    "faq_url": "",
    "support_url": "https://xenforo.com/community/resources/double-click-forum-icons-to-mark-forum-as-read.6731",
    "extra_urls": [],
    "require": {
        "XF": [
            2000010,
            "XenForo 2.0.0+"
        ],
        "php": [
            "5.6.0",
            "PHP 5.6.0+"
        ]
    },
    "icon": "fa-book"
}